…
    ## Rows: 52179 Columns: 12
    ## ── Column specification ────────────────────────────────────────────────────────
    ## Delimiter: ","
    ## chr (9): uid, victim_last, victim_first, victim_race, victim_age, victim_sex...
    ## dbl (3): reported_date, lat, lon
    ## 
    ## ℹ Use `spec()` to retrieve the full column specification for this data.
    ## ℹ Specify the column types or set `show_col_types = FALSE` to quiet this message.

``` r
homicide
```

    ## # A tibble: 52,179 × 12
    ##    uid        reported_date victim_last  victim_first victim_race victim_age
    ##    <chr>              <dbl> <chr>        <chr>        <chr>       <chr>     
    ##  1 Alb-000001      20100504 GARCIA       JUAN         Hispanic    78        
    ##  2 Alb-000002      20100216 MONTOYA      CAMERON      Hispanic    17        
    ##  3 Alb-000003      20100601 SATTERFIELD  VIVIANA      White       15        
    ##  4 Alb-000004      20100101 MENDIOLA     CARLOS       Hispanic    32        
    ##  5 Alb-000005      20100102 MULA         VIVIAN       White       72        
    ##  6 Alb-000006      20100126 BOOK         GERALDINE    White       91        
    ##  7 Alb-000007      20100127 MALDONADO    DAVID        Hispanic    52        
    ##  8 Alb-000008      20100127 MALDONADO    CONNIE       Hispanic    52        
    ##  9 Alb-000009      20100130 MARTIN-LEYVA GUSTAVO      White       56        
    ## 10 Alb-000010      20100210 HERRERA      ISRAEL       Hispanic    43        
    ## # ℹ 52,169 more rows
    ## # ℹ 6 more variables: victim_sex <chr>, city <chr>, state <chr>, lat <dbl>,
    ## #   lon <dbl>, disposition <chr>
…
``` r
homicide_n=homicide|> 
  group_by(city_state) |>
  summarize(
    total_homicides = n(),
    unsolved_homicides = sum(disposition %in% "Open/No arrest") + sum(disposition %in% "Closed without arrest")) |>
  tibble()

homicide_n
```

    ## # A tibble: 51 × 3
    ##    city_state      total_homicides unsolved_homicides
    ##    <chr>                     <int>              <int>
    ##  1 Albuquerque, NM             378                146
    ##  2 Atlanta, GA                 973                373
    ##  3 Baltimore, MD              2827               1825
    ##  4 Baton Rouge, LA             424                196
    ##  5 Birmingham, AL              800                347
    ##  6 Boston, MA                  614                310
    ##  7 Buffalo, NY                 521                319
    ##  8 Charlotte, NC               687                206
    ##  9 Chicago, IL                5535               4073
    ## 10 Cincinnati, OH              694                309
    ## # ℹ 41 more rows
…
    ## Warning: There was 1 warning in `mutate()`.
    ## ℹ In argument: `prop_test = map2(...)`.
    ## Caused by warning in `prop.test()`:
    ## ! Chi-squared approximation may be incorrect

    ## Warning: `cols` is now required when using `unnest()`.
    ## ℹ Please use `cols = c(prop_test)`.

``` r
all_unsolved
```

    ## # A tibble: 51 × 4
    ##    city_state      estimate conf.low conf.high
    ##    <chr>              <dbl>    <dbl>     <dbl>
    ##  1 Albuquerque, NM    0.386    0.337     0.438
    ##  2 Atlanta, GA        0.383    0.353     0.415
    ##  3 Baltimore, MD      0.646    0.628     0.663
    ##  4 Baton Rouge, LA    0.462    0.414     0.511
    ##  5 Birmingham, AL     0.434    0.399     0.469
    ##  6 Boston, MA         0.505    0.465     0.545
    ##  7 Buffalo, NY        0.612    0.569     0.654
    ##  8 Charlotte, NC      0.300    0.266     0.336
    ##  9 Chicago, IL        0.736    0.724     0.747
    ## 10 Cincinnati, OH     0.445    0.408     0.483
    ## # ℹ 41 more rows
…
tidy_long
```

    ## # A tibble: 160 × 4
    ##    files  group  week results
    ##    <chr>  <chr> <dbl>   <dbl>
    ##  1 con_01 con       1    0.2 
    ##  2 con_01 con       2   -1.31
    ##  3 con_01 con       3    0.66
    ##  4 con_01 con       4    1.96
    ##  5 con_01 con       5    0.23
    ##  6 con_01 con       6    1.09
    ##  7 con_01 con       7    0.05
    ##  8 con_01 con       8    1.94
    ##  9 con_02 con       1    1.13
    ## 10 con_02 con       2   -0.88
    ## # ℹ 150 more rows
…
